{
	"info": {
		"_postman_id": "e708eaf1-442c-4044-b3dd-0c72186a10bc",
		"name": "Artifact Impex",
		"schema": "https://schema.getpostman.com/json/collection/v2.1.0/collection.json"
	},
	"item": [
		{
			"name": "List Artifacts",
			"request": {
				"method": "GET",
				"header": [
					{
						"key": "Referer",
						"type": "text",
						"value": "{{protocol}}://{{hostname}}:{{port}}{{base_url}}/client/"
					},
					{
						"key": "OWASP_CSRFTOKEN",
						"type": "text",
						"value": "{{csrftoken}}"
					},
					{
						"key": "X-Requested-With",
						"type": "text",
						"value": "XMLHttpRequest, XMLHttpRequest"
					}
				],
				"body": {
					"mode": "raw",
					"raw": ""
				},
				"url": {
					"raw": "{{protocol}}://{{hostname}}:{{port}}{{base_url}}/impex/components/artifactType/v2",
					"protocol": "{{protocol}}",
					"host": [
						"{{hostname}}"
					],
					"port": "{{port}}{{base_url}}",
					"path": [
						"impex",
						"components",
						"artifactType",
						"v2"
					]
				}
			},
			"response": [
				{
					"name": "/wiki/get",
					"originalRequest": {
						"method": "GET",
						"header": [
							{
								"key": "Referer",
								"type": "text",
								"value": "{{protocol}}://{{hostname}}:{{port}}{{base_url}}/client/"
							},
							{
								"key": "OWASP_CSRFTOKEN",
								"type": "text",
								"value": "{{csrftoken}}"
							},
							{
								"key": "X-Requested-With",
								"type": "text",
								"value": "XMLHttpRequest, XMLHttpRequest"
							}
						],
						"body": {
							"mode": "raw",
							"raw": ""
						},
						"url": {
							"raw": "{{protocol}}://{{hostname}}:{{port}}{{base_url}}/wiki/get?id&name=PatchSmokeTest.QAAUI-227-1542729556058&version",
							"protocol": "{{protocol}}",
							"host": [
								"{{hostname}}"
							],
							"port": "{{port}}{{base_url}}",
							"path": [
								"wiki",
								"get"
							],
							"query": [
								{
									"key": "id",
									"value": null,
									"description": "ID of the wiki document to return"
								},
								{
									"key": "name",
									"value": "PatchSmokeTest.QAAUI-227-1542729556058",
									"description": "name of the wiki document to return"
								},
								{
									"key": "version",
									"value": null,
									"description": "version of the wiki document to get, could also be any of the special keywords \"latest\" or \"latestStable\" to denote latest or latest stable version to retrieve, if not specified defaults to \"latest\""
								}
							]
						}
					},
					"status": "OK",
					"code": 200,
					"_postman_previewlanguage": "json",
					"header": [
						{
							"key": "Cache-Control",
							"value": "no-cache, no-store, must-revalidate"
						},
						{
							"key": "Expires",
							"value": "Thu, 01 Jan 1970 00:00:00 GMT"
						},
						{
							"key": "Strict-Transport-Security",
							"value": "max-age=31536000;includeSubDomains"
						},
						{
							"key": "X-Frame-Options",
							"value": "SAMEORIGIN"
						},
						{
							"key": "X-Content-Type-Options",
							"value": "nosniff"
						},
						{
							"key": "X-XSS-Protection",
							"value": "1; mode=block "
						},
						{
							"key": "p3p",
							"value": "CP=\"JUSTFORIE\""
						},
						{
							"key": "Pragma",
							"value": "no-cache"
						},
						{
							"key": "Content-Security-Policy",
							"value": "upgrade-insecure-requests"
						},
						{
							"key": "Content-Type",
							"value": "application/json;charset=utf-8"
						},
						{
							"key": "Transfer-Encoding",
							"value": "chunked"
						},
						{
							"key": "Content-Encoding",
							"value": "gzip"
						},
						{
							"key": "Vary",
							"value": "Accept-Encoding"
						},
						{
							"key": "Date",
							"value": "Fri, 01 Mar 2019 08:07:37 GMT"
						},
						{
							"key": "Server",
							"value": "Apache"
						}
					],
					"cookie": [],
					"body": "{\n    \"success\": true,\n    \"message\": null,\n    \"errorCode\": null,\n    \"data\": {\n        \"id\": \"8ab2826b672f3e20016731d9523818e2\",\n        \"sys_id\": \"8ab2826b672f3e20016731d9523818e2\",\n        \"sysCreatedOn\": 1542729585000,\n        \"sysCreatedBy\": \"admin\",\n        \"sysUpdatedOn\": 1551427658154,\n        \"sysUpdatedBy\": \"admin\",\n        \"sysModCount\": 0,\n        \"sysPerm\": \"UNDEFINED\",\n        \"sysOrg\": \"\",\n        \"sysIsDeleted\": false,\n        \"sysOrganizationName\": \"UNDEFINED\",\n        \"checksum\": 735390983,\n        \"rbGeneralVO\": null,\n        \"accessRights\": {\n            \"id\": \"8ab2826b672f3e20016731d9523818e3\",\n            \"sys_id\": \"8ab2826b672f3e20016731d9523818e3\",\n            \"sysCreatedOn\": 1542729585000,\n            \"sysCreatedBy\": \"admin\",\n            \"sysUpdatedOn\": 1542729600000,\n            \"sysUpdatedBy\": \"admin\",\n            \"sysModCount\": 0,\n            \"sysPerm\": \"UNDEFINED\",\n            \"sysOrg\": null,\n            \"sysIsDeleted\": false,\n            \"sysOrganizationName\": \"UNDEFINED\",\n            \"checksum\": 0,\n            \"ureadAccess\": \"admin,resolve_dev,resolve_process,resolve_user,security_admin,security_designer\",\n            \"uwriteAccess\": \"admin,resolve_dev,resolve_process,resolve_user,security_admin,security_designer\",\n            \"uexecuteAccess\": \"admin,resolve_dev,resolve_process,resolve_user,security_admin,security_designer\",\n            \"uadminAccess\": \"admin,resolve_dev,resolve_process,resolve_user,security_admin,security_designer\",\n            \"uresourceType\": \"wikidoc\",\n            \"uresourceName\": \"PatchSmokeTest.QAAUI-227-1542729556058\",\n            \"uresourceId\": \"8ab2826b672f3e20016731d9523818e2\"\n        },\n        \"rbGeneral\": {\n            \"id\": \"8ab2826b672f3e20016731d9523e18e4\",\n            \"sys_id\": \"8ab2826b672f3e20016731d9523e18e4\",\n            \"sysCreatedOn\": 1542729585000,\n            \"sysCreatedBy\": \"admin\",\n            \"sysUpdatedOn\": 1542729585000,\n            \"sysUpdatedBy\": \"admin\",\n            \"sysModCount\": 0,\n            \"sysPerm\": \"UNDEFINED\",\n            \"sysOrg\": null,\n            \"sysIsDeleted\": false,\n            \"sysOrganizationName\": \"UNDEFINED\",\n            \"checksum\": 0,\n            \"name\": \"QAAUI-227-1542729556058\",\n            \"namespace\": \"PatchSmokeTest\",\n            \"summary\": null,\n            \"noOfColumn\": 0,\n            \"newWorksheet\": null,\n            \"wikiId\": \"8ab2826b672f3e20016731d9523818e2\",\n            \"generated\": false,\n            \"wikiParameters\": \"UNDEFINED\",\n            \"lockedByUser\": \"UNDEFINED\"\n        },\n        \"wikidocAttachmentRels\": null,\n        \"wikidocResolveTagRels\": null,\n        \"wikidocStatistics\": null,\n        \"roleWikidocHomepageRels\": null,\n        \"wikidocResolutionRating\": null,\n        \"wikidocQualityRating\": null,\n        \"pbActivities\": null,\n        \"namespace\": null,\n        \"softLock\": false,\n        \"lockedByUsername\": null,\n        \"hasChildren\": false,\n        \"uversion\": 3,\n        \"uname\": \"QAAUI-227-1542729556058\",\n        \"utitle\": \"PatchSmokeTest.QAAUI-227-1542729556058\",\n        \"ufullname\": \"PatchSmokeTest.QAAUI-227-1542729556058\",\n        \"unamespace\": \"PatchSmokeTest\",\n        \"uisStable\": null,\n        \"ureadRoles\": \"admin,resolve_dev,resolve_process,resolve_user,security_admin,security_designer\",\n        \"uwriteRoles\": \"admin,resolve_dev,resolve_process,resolve_user,security_admin,security_designer\",\n        \"uadminRoles\": \"admin,resolve_dev,resolve_process,resolve_user,security_admin,security_designer\",\n        \"uexecuteRoles\": \"admin,resolve_dev,resolve_process,resolve_user,security_admin,security_designer\",\n        \"uimpexSysId\": null,\n        \"uisDocumentStreamLocked\": false,\n        \"uisCurrentUserFollowing\": true,\n        \"usummary\": \"PatchSmokeTest.QAAUI-227-1542729556058\",\n        \"uwysiwyg\": null,\n        \"ucontent\": \"{section:type=new|title=Untitled Section}\\n\\n{section}\",\n        \"umodelProcess\": \"<mxGraphModel>\\n  <root>\\n    <mxCell id=\\\"0\\\"/>\\n    <mxCell id=\\\"1\\\" parent=\\\"0\\\"/>\\n    <Start label=\\\"Start\\\" description=\\\"\\\" merge=\\\"merge = ALL\\\" id=\\\"2\\\">\\n      <name>\\n        start#resolve\\n      </name>\\n      <params>\\n        <inputs/>\\n        <outputs/>\\n      </params>\\n      <mxCell style=\\\"symbol;image=/resolve/jsp/model/images/symbols/start.png;fontFamily=Helvetica;fontSize=11\\\" parent=\\\"1\\\" vertex=\\\"1\\\">\\n        <mxGeometry x=\\\"285\\\" y=\\\"5\\\" width=\\\"30\\\" height=\\\"30\\\" as=\\\"geometry\\\"/>\\n      </mxCell>\\n    </Start>\\n    <Task label=\\\"comment\\\" description=\\\"comment#resolve?\\\" tooltip=\\\"\\\" href=\\\"\\\" merge=\\\"merge = ALL\\\" id=\\\"3\\\">\\n      <name>\\n        comment#resolve\\n      </name>\\n      <params>\\n        <inputs>\\n          <![CDATA[{}]]>\\n        </inputs>\\n        <outputs>\\n          <![CDATA[{}]]>\\n        </outputs>\\n      </params>\\n      <mxCell style=\\\"rounded;labelBackgroundColor=none;strokeColor=#A9A9A9;fillColor=#D3D3D3;gradientColor=white;fontFamily=Helvetica;fontSize=11;verticalLabelPosition=middle;verticalAlign=middle\\\" parent=\\\"1\\\" vertex=\\\"1\\\">\\n        <mxGeometry x=\\\"150\\\" y=\\\"100\\\" width=\\\"100\\\" height=\\\"40\\\" as=\\\"geometry\\\"/>\\n      </mxCell>\\n    </Task>\\n    <End label=\\\"End\\\" description=\\\"\\\" merge=\\\"merge = ALL\\\" id=\\\"4\\\">\\n      <name>\\n        end#resolve\\n      </name>\\n      <params>\\n        <inputs/>\\n        <outputs/>\\n      </params>\\n      <mxCell style=\\\"symbol;image=/resolve/jsp/model/images/symbols/end.png;fontFamily=Helvetica;fontSize=11\\\" parent=\\\"1\\\" vertex=\\\"1\\\">\\n        <mxGeometry x=\\\"285\\\" y=\\\"205\\\" width=\\\"30\\\" height=\\\"30\\\" as=\\\"geometry\\\"/>\\n      </mxCell>\\n    </End>\\n    <Task label=\\\"noop\\\" description=\\\"noop#resolve?\\\" tooltip=\\\"\\\" href=\\\"\\\" merge=\\\"merge = ALL\\\" id=\\\"7\\\">\\n      <name>\\n        noop#resolve\\n      </name>\\n      <params>\\n        <inputs>\\n          <![CDATA[{}]]>\\n        </inputs>\\n        <outputs>\\n          <![CDATA[{}]]>\\n        </outputs>\\n      </params>\\n      <mxCell style=\\\"rounded;labelBackgroundColor=none;strokeColor=#A9A9A9;fillColor=#D3D3D3;gradientColor=white;fontFamily=Helvetica;fontSize=11;verticalLabelPosition=middle;verticalAlign=middle\\\" parent=\\\"1\\\" vertex=\\\"1\\\">\\n        <mxGeometry x=\\\"350\\\" y=\\\"100\\\" width=\\\"100\\\" height=\\\"40\\\" as=\\\"geometry\\\"/>\\n      </mxCell>\\n    </Task>\\n    <Task label=\\\"event\\\" description=\\\"event#resolve?\\\" tooltip=\\\"\\\" href=\\\"\\\" merge=\\\"merge = ALL\\\" id=\\\"10\\\">\\n      <name>\\n        event#resolve\\n      </name>\\n      <params>\\n        <inputs>\\n          <![CDATA[{}]]>\\n        </inputs>\\n        <outputs>\\n          <![CDATA[{}]]>\\n        </outputs>\\n      </params>\\n      <mxCell style=\\\"rounded;labelBackgroundColor=none;strokeColor=#A9A9A9;fillColor=#D3D3D3;gradientColor=white;fontFamily=Helvetica;fontSize=11\\\" parent=\\\"1\\\" vertex=\\\"1\\\">\\n        <mxGeometry x=\\\"250\\\" y=\\\"100\\\" width=\\\"100\\\" height=\\\"40\\\" as=\\\"geometry\\\"/>\\n      </mxCell>\\n    </Task>\\n    <Edge label=\\\"\\\" description=\\\"\\\" order=\\\"99999\\\" id=\\\"5\\\">\\n      <mxCell style=\\\"straight;noEdgeStyle=1\\\" parent=\\\"1\\\" source=\\\"2\\\" target=\\\"3\\\" edge=\\\"1\\\">\\n        <mxGeometry relative=\\\"1\\\" as=\\\"geometry\\\"/>\\n      </mxCell>\\n    </Edge>\\n    <Edge label=\\\"\\\" description=\\\"\\\" order=\\\"99999\\\" id=\\\"6\\\">\\n      <mxCell style=\\\"straight;noEdgeStyle=1\\\" parent=\\\"1\\\" source=\\\"3\\\" target=\\\"4\\\" edge=\\\"1\\\">\\n        <mxGeometry relative=\\\"1\\\" as=\\\"geometry\\\"/>\\n      </mxCell>\\n    </Edge>\\n    <Edge label=\\\"\\\" description=\\\"\\\" order=\\\"99999\\\" id=\\\"8\\\">\\n      <mxCell style=\\\"straight;noEdgeStyle=1\\\" parent=\\\"1\\\" source=\\\"2\\\" target=\\\"7\\\" edge=\\\"1\\\">\\n        <mxGeometry relative=\\\"1\\\" as=\\\"geometry\\\"/>\\n      </mxCell>\\n    </Edge>\\n    <Edge label=\\\"\\\" description=\\\"\\\" order=\\\"99999\\\" id=\\\"9\\\">\\n      <mxCell style=\\\"straight;noEdgeStyle=1\\\" parent=\\\"1\\\" source=\\\"7\\\" target=\\\"4\\\" edge=\\\"1\\\">\\n        <mxGeometry relative=\\\"1\\\" as=\\\"geometry\\\"/>\\n      </mxCell>\\n    </Edge>\\n    <Edge label=\\\"\\\" description=\\\"\\\" order=\\\"99999\\\" id=\\\"11\\\">\\n      <mxCell style=\\\"straight;noEdgeStyle=1\\\" parent=\\\"1\\\" source=\\\"2\\\" target=\\\"10\\\" edge=\\\"1\\\">\\n        <mxGeometry relative=\\\"1\\\" as=\\\"geometry\\\"/>\\n      </mxCell>\\n    </Edge>\\n    <Edge label=\\\"\\\" description=\\\"\\\" order=\\\"99999\\\" id=\\\"12\\\">\\n      <mxCell style=\\\"straight;noEdgeStyle=1\\\" parent=\\\"1\\\" source=\\\"10\\\" target=\\\"4\\\" edge=\\\"1\\\">\\n        <mxGeometry relative=\\\"1\\\" as=\\\"geometry\\\"/>\\n      </mxCell>\\n    </Edge>\\n  </root>\\n</mxGraphModel>\\n\",\n        \"umodelException\": \"\",\n        \"umodelFinal\": null,\n        \"uisDeleted\": false,\n        \"uisHidden\": false,\n        \"uisLocked\": false,\n        \"uisActive\": true,\n        \"uisDefaultRole\": true,\n        \"udecisionTree\": \"\",\n        \"ulanguage\": null,\n        \"utag\": null,\n        \"ucatalog\": null,\n        \"ulockedBy\": \"\",\n        \"uhasActiveModel\": true,\n        \"uisRoot\": false,\n        \"uratingBoost\": null,\n        \"uisRequestSubmission\": false,\n        \"ureqestSubmissionOn\": null,\n        \"ulastReviewedOn\": null,\n        \"ulastReviewedBy\": \"\",\n        \"uexpireOn\": null,\n        \"udtabortTime\": 0,\n        \"udisplayMode\": \"wiki\",\n        \"ucatalogId\": \"\",\n        \"uwikiParameters\": \"[]\",\n        \"uresolutionBuilderId\": \"8ab2826b672f3e20016731d9523e18e4\",\n        \"uhasResolutionBuilder\": false,\n        \"uisTemplate\": false,\n        \"usirrefCount\": 0,\n        \"udtoptions\": \"{\\\"dtLayout\\\":{\\\"questionFontColor\\\":\\\"000000\\\",\\\"questionFont\\\":\\\"Verdana\\\",\\\"questionFontSize\\\":\\\"13\\\",\\\"answerFontColor\\\":\\\"000000\\\",\\\"answerFont\\\":\\\"Verdana\\\",\\\"answerFontSize\\\":\\\"10\\\",\\\"recommendationFontColor\\\":\\\"41a510\\\",\\\"recommendationFont\\\":\\\"Verdana\\\",\\\"recommendationFontSize\\\":\\\"10\\\",\\\"confirmationFontColor\\\":\\\"FFFFFF\\\",\\\"confirmationBGColor\\\":\\\"41a510\\\",\\\"confirmationFont\\\":\\\"Verdana\\\",\\\"confirmationFontSize\\\":\\\"10\\\",\\\"navigationFontColor\\\":\\\"FFFFFF\\\",\\\"navigationBGColor\\\":\\\"41a510\\\",\\\"navigationFont\\\":\\\"Verdana\\\",\\\"navigationFontSize\\\":\\\"13\\\",\\\"autoConfirm\\\":false,\\\"buttonText\\\":\\\"Next\\\",\\\"questionOnTop\\\":true,\\\"navOnLeft\\\":true,\\\"verticalAnswerLayout\\\":false,\\\"isAutoAnswerDisabled\\\":false},\\\"dtVariables\\\":[]}\"\n    },\n    \"records\": null,\n    \"total\": 0\n}"
				}
			]
		},
		{
			"name": "get Artifact Type Details",
			"request": {
				"method": "GET",
				"header": [
					{
						"key": "Referer",
						"type": "text",
						"value": "{{protocol}}://{{hostname}}:{{port}}{{base_url}}/client/"
					},
					{
						"key": "OWASP_CSRFTOKEN",
						"type": "text",
						"value": "{{csrftoken}}"
					},
					{
						"key": "X-Requested-With",
						"type": "text",
						"value": "XMLHttpRequest, XMLHttpRequest"
					}
				],
				"body": {
					"mode": "raw",
					"raw": ""
				},
				"url": {
					"raw": "{{protocol}}://{{hostname}}:{{port}}{{base_url}}/impex/detail/ridMapping/ff8080816ad7b225016ad7e7ec3b0003",
					"protocol": "{{protocol}}",
					"host": [
						"{{hostname}}"
					],
					"port": "{{port}}{{base_url}}",
					"path": [
						"impex",
						"detail",
						"ridMapping",
						"ff8080816ad7b225016ad7e7ec3b0003"
					]
				}
			},
			"response": [
				{
					"name": "/wiki/get",
					"originalRequest": {
						"method": "GET",
						"header": [
							{
								"key": "Referer",
								"type": "text",
								"value": "{{protocol}}://{{hostname}}:{{port}}{{base_url}}/client/"
							},
							{
								"key": "OWASP_CSRFTOKEN",
								"type": "text",
								"value": "{{csrftoken}}"
							},
							{
								"key": "X-Requested-With",
								"type": "text",
								"value": "XMLHttpRequest, XMLHttpRequest"
							}
						],
						"body": {
							"mode": "raw",
							"raw": ""
						},
						"url": {
							"raw": "{{protocol}}://{{hostname}}:{{port}}{{base_url}}/wiki/get?id&name=PatchSmokeTest.QAAUI-227-1542729556058&version",
							"protocol": "{{protocol}}",
							"host": [
								"{{hostname}}"
							],
							"port": "{{port}}{{base_url}}",
							"path": [
								"wiki",
								"get"
							],
							"query": [
								{
									"key": "id",
									"value": null,
									"description": "ID of the wiki document to return"
								},
								{
									"key": "name",
									"value": "PatchSmokeTest.QAAUI-227-1542729556058",
									"description": "name of the wiki document to return"
								},
								{
									"key": "version",
									"value": null,
									"description": "version of the wiki document to get, could also be any of the special keywords \"latest\" or \"latestStable\" to denote latest or latest stable version to retrieve, if not specified defaults to \"latest\""
								}
							]
						}
					},
					"status": "OK",
					"code": 200,
					"_postman_previewlanguage": "json",
					"header": [
						{
							"key": "Cache-Control",
							"value": "no-cache, no-store, must-revalidate"
						},
						{
							"key": "Expires",
							"value": "Thu, 01 Jan 1970 00:00:00 GMT"
						},
						{
							"key": "Strict-Transport-Security",
							"value": "max-age=31536000;includeSubDomains"
						},
						{
							"key": "X-Frame-Options",
							"value": "SAMEORIGIN"
						},
						{
							"key": "X-Content-Type-Options",
							"value": "nosniff"
						},
						{
							"key": "X-XSS-Protection",
							"value": "1; mode=block "
						},
						{
							"key": "p3p",
							"value": "CP=\"JUSTFORIE\""
						},
						{
							"key": "Pragma",
							"value": "no-cache"
						},
						{
							"key": "Content-Security-Policy",
							"value": "upgrade-insecure-requests"
						},
						{
							"key": "Content-Type",
							"value": "application/json;charset=utf-8"
						},
						{
							"key": "Transfer-Encoding",
							"value": "chunked"
						},
						{
							"key": "Content-Encoding",
							"value": "gzip"
						},
						{
							"key": "Vary",
							"value": "Accept-Encoding"
						},
						{
							"key": "Date",
							"value": "Fri, 01 Mar 2019 08:07:37 GMT"
						},
						{
							"key": "Server",
							"value": "Apache"
						}
					],
					"cookie": [],
					"body": "{\n    \"success\": true,\n    \"message\": null,\n    \"errorCode\": null,\n    \"data\": {\n        \"id\": \"8ab2826b672f3e20016731d9523818e2\",\n        \"sys_id\": \"8ab2826b672f3e20016731d9523818e2\",\n        \"sysCreatedOn\": 1542729585000,\n        \"sysCreatedBy\": \"admin\",\n        \"sysUpdatedOn\": 1551427658154,\n        \"sysUpdatedBy\": \"admin\",\n        \"sysModCount\": 0,\n        \"sysPerm\": \"UNDEFINED\",\n        \"sysOrg\": \"\",\n        \"sysIsDeleted\": false,\n        \"sysOrganizationName\": \"UNDEFINED\",\n        \"checksum\": 735390983,\n        \"rbGeneralVO\": null,\n        \"accessRights\": {\n            \"id\": \"8ab2826b672f3e20016731d9523818e3\",\n            \"sys_id\": \"8ab2826b672f3e20016731d9523818e3\",\n            \"sysCreatedOn\": 1542729585000,\n            \"sysCreatedBy\": \"admin\",\n            \"sysUpdatedOn\": 1542729600000,\n            \"sysUpdatedBy\": \"admin\",\n            \"sysModCount\": 0,\n            \"sysPerm\": \"UNDEFINED\",\n            \"sysOrg\": null,\n            \"sysIsDeleted\": false,\n            \"sysOrganizationName\": \"UNDEFINED\",\n            \"checksum\": 0,\n            \"ureadAccess\": \"admin,resolve_dev,resolve_process,resolve_user,security_admin,security_designer\",\n            \"uwriteAccess\": \"admin,resolve_dev,resolve_process,resolve_user,security_admin,security_designer\",\n            \"uexecuteAccess\": \"admin,resolve_dev,resolve_process,resolve_user,security_admin,security_designer\",\n            \"uadminAccess\": \"admin,resolve_dev,resolve_process,resolve_user,security_admin,security_designer\",\n            \"uresourceType\": \"wikidoc\",\n            \"uresourceName\": \"PatchSmokeTest.QAAUI-227-1542729556058\",\n            \"uresourceId\": \"8ab2826b672f3e20016731d9523818e2\"\n        },\n        \"rbGeneral\": {\n            \"id\": \"8ab2826b672f3e20016731d9523e18e4\",\n            \"sys_id\": \"8ab2826b672f3e20016731d9523e18e4\",\n            \"sysCreatedOn\": 1542729585000,\n            \"sysCreatedBy\": \"admin\",\n            \"sysUpdatedOn\": 1542729585000,\n            \"sysUpdatedBy\": \"admin\",\n            \"sysModCount\": 0,\n            \"sysPerm\": \"UNDEFINED\",\n            \"sysOrg\": null,\n            \"sysIsDeleted\": false,\n            \"sysOrganizationName\": \"UNDEFINED\",\n            \"checksum\": 0,\n            \"name\": \"QAAUI-227-1542729556058\",\n            \"namespace\": \"PatchSmokeTest\",\n            \"summary\": null,\n            \"noOfColumn\": 0,\n            \"newWorksheet\": null,\n            \"wikiId\": \"8ab2826b672f3e20016731d9523818e2\",\n            \"generated\": false,\n            \"wikiParameters\": \"UNDEFINED\",\n            \"lockedByUser\": \"UNDEFINED\"\n        },\n        \"wikidocAttachmentRels\": null,\n        \"wikidocResolveTagRels\": null,\n        \"wikidocStatistics\": null,\n        \"roleWikidocHomepageRels\": null,\n        \"wikidocResolutionRating\": null,\n        \"wikidocQualityRating\": null,\n        \"pbActivities\": null,\n        \"namespace\": null,\n        \"softLock\": false,\n        \"lockedByUsername\": null,\n        \"hasChildren\": false,\n        \"uversion\": 3,\n        \"uname\": \"QAAUI-227-1542729556058\",\n        \"utitle\": \"PatchSmokeTest.QAAUI-227-1542729556058\",\n        \"ufullname\": \"PatchSmokeTest.QAAUI-227-1542729556058\",\n        \"unamespace\": \"PatchSmokeTest\",\n        \"uisStable\": null,\n        \"ureadRoles\": \"admin,resolve_dev,resolve_process,resolve_user,security_admin,security_designer\",\n        \"uwriteRoles\": \"admin,resolve_dev,resolve_process,resolve_user,security_admin,security_designer\",\n        \"uadminRoles\": \"admin,resolve_dev,resolve_process,resolve_user,security_admin,security_designer\",\n        \"uexecuteRoles\": \"admin,resolve_dev,resolve_process,resolve_user,security_admin,security_designer\",\n        \"uimpexSysId\": null,\n        \"uisDocumentStreamLocked\": false,\n        \"uisCurrentUserFollowing\": true,\n        \"usummary\": \"PatchSmokeTest.QAAUI-227-1542729556058\",\n        \"uwysiwyg\": null,\n        \"ucontent\": \"{section:type=new|title=Untitled Section}\\n\\n{section}\",\n        \"umodelProcess\": \"<mxGraphModel>\\n  <root>\\n    <mxCell id=\\\"0\\\"/>\\n    <mxCell id=\\\"1\\\" parent=\\\"0\\\"/>\\n    <Start label=\\\"Start\\\" description=\\\"\\\" merge=\\\"merge = ALL\\\" id=\\\"2\\\">\\n      <name>\\n        start#resolve\\n      </name>\\n      <params>\\n        <inputs/>\\n        <outputs/>\\n      </params>\\n      <mxCell style=\\\"symbol;image=/resolve/jsp/model/images/symbols/start.png;fontFamily=Helvetica;fontSize=11\\\" parent=\\\"1\\\" vertex=\\\"1\\\">\\n        <mxGeometry x=\\\"285\\\" y=\\\"5\\\" width=\\\"30\\\" height=\\\"30\\\" as=\\\"geometry\\\"/>\\n      </mxCell>\\n    </Start>\\n    <Task label=\\\"comment\\\" description=\\\"comment#resolve?\\\" tooltip=\\\"\\\" href=\\\"\\\" merge=\\\"merge = ALL\\\" id=\\\"3\\\">\\n      <name>\\n        comment#resolve\\n      </name>\\n      <params>\\n        <inputs>\\n          <![CDATA[{}]]>\\n        </inputs>\\n        <outputs>\\n          <![CDATA[{}]]>\\n        </outputs>\\n      </params>\\n      <mxCell style=\\\"rounded;labelBackgroundColor=none;strokeColor=#A9A9A9;fillColor=#D3D3D3;gradientColor=white;fontFamily=Helvetica;fontSize=11;verticalLabelPosition=middle;verticalAlign=middle\\\" parent=\\\"1\\\" vertex=\\\"1\\\">\\n        <mxGeometry x=\\\"150\\\" y=\\\"100\\\" width=\\\"100\\\" height=\\\"40\\\" as=\\\"geometry\\\"/>\\n      </mxCell>\\n    </Task>\\n    <End label=\\\"End\\\" description=\\\"\\\" merge=\\\"merge = ALL\\\" id=\\\"4\\\">\\n      <name>\\n        end#resolve\\n      </name>\\n      <params>\\n        <inputs/>\\n        <outputs/>\\n      </params>\\n      <mxCell style=\\\"symbol;image=/resolve/jsp/model/images/symbols/end.png;fontFamily=Helvetica;fontSize=11\\\" parent=\\\"1\\\" vertex=\\\"1\\\">\\n        <mxGeometry x=\\\"285\\\" y=\\\"205\\\" width=\\\"30\\\" height=\\\"30\\\" as=\\\"geometry\\\"/>\\n      </mxCell>\\n    </End>\\n    <Task label=\\\"noop\\\" description=\\\"noop#resolve?\\\" tooltip=\\\"\\\" href=\\\"\\\" merge=\\\"merge = ALL\\\" id=\\\"7\\\">\\n      <name>\\n        noop#resolve\\n      </name>\\n      <params>\\n        <inputs>\\n          <![CDATA[{}]]>\\n        </inputs>\\n        <outputs>\\n          <![CDATA[{}]]>\\n        </outputs>\\n      </params>\\n      <mxCell style=\\\"rounded;labelBackgroundColor=none;strokeColor=#A9A9A9;fillColor=#D3D3D3;gradientColor=white;fontFamily=Helvetica;fontSize=11;verticalLabelPosition=middle;verticalAlign=middle\\\" parent=\\\"1\\\" vertex=\\\"1\\\">\\n        <mxGeometry x=\\\"350\\\" y=\\\"100\\\" width=\\\"100\\\" height=\\\"40\\\" as=\\\"geometry\\\"/>\\n      </mxCell>\\n    </Task>\\n    <Task label=\\\"event\\\" description=\\\"event#resolve?\\\" tooltip=\\\"\\\" href=\\\"\\\" merge=\\\"merge = ALL\\\" id=\\\"10\\\">\\n      <name>\\n        event#resolve\\n      </name>\\n      <params>\\n        <inputs>\\n          <![CDATA[{}]]>\\n        </inputs>\\n        <outputs>\\n          <![CDATA[{}]]>\\n        </outputs>\\n      </params>\\n      <mxCell style=\\\"rounded;labelBackgroundColor=none;strokeColor=#A9A9A9;fillColor=#D3D3D3;gradientColor=white;fontFamily=Helvetica;fontSize=11\\\" parent=\\\"1\\\" vertex=\\\"1\\\">\\n        <mxGeometry x=\\\"250\\\" y=\\\"100\\\" width=\\\"100\\\" height=\\\"40\\\" as=\\\"geometry\\\"/>\\n      </mxCell>\\n    </Task>\\n    <Edge label=\\\"\\\" description=\\\"\\\" order=\\\"99999\\\" id=\\\"5\\\">\\n      <mxCell style=\\\"straight;noEdgeStyle=1\\\" parent=\\\"1\\\" source=\\\"2\\\" target=\\\"3\\\" edge=\\\"1\\\">\\n        <mxGeometry relative=\\\"1\\\" as=\\\"geometry\\\"/>\\n      </mxCell>\\n    </Edge>\\n    <Edge label=\\\"\\\" description=\\\"\\\" order=\\\"99999\\\" id=\\\"6\\\">\\n      <mxCell style=\\\"straight;noEdgeStyle=1\\\" parent=\\\"1\\\" source=\\\"3\\\" target=\\\"4\\\" edge=\\\"1\\\">\\n        <mxGeometry relative=\\\"1\\\" as=\\\"geometry\\\"/>\\n      </mxCell>\\n    </Edge>\\n    <Edge label=\\\"\\\" description=\\\"\\\" order=\\\"99999\\\" id=\\\"8\\\">\\n      <mxCell style=\\\"straight;noEdgeStyle=1\\\" parent=\\\"1\\\" source=\\\"2\\\" target=\\\"7\\\" edge=\\\"1\\\">\\n        <mxGeometry relative=\\\"1\\\" as=\\\"geometry\\\"/>\\n      </mxCell>\\n    </Edge>\\n    <Edge label=\\\"\\\" description=\\\"\\\" order=\\\"99999\\\" id=\\\"9\\\">\\n      <mxCell style=\\\"straight;noEdgeStyle=1\\\" parent=\\\"1\\\" source=\\\"7\\\" target=\\\"4\\\" edge=\\\"1\\\">\\n        <mxGeometry relative=\\\"1\\\" as=\\\"geometry\\\"/>\\n      </mxCell>\\n    </Edge>\\n    <Edge label=\\\"\\\" description=\\\"\\\" order=\\\"99999\\\" id=\\\"11\\\">\\n      <mxCell style=\\\"straight;noEdgeStyle=1\\\" parent=\\\"1\\\" source=\\\"2\\\" target=\\\"10\\\" edge=\\\"1\\\">\\n        <mxGeometry relative=\\\"1\\\" as=\\\"geometry\\\"/>\\n      </mxCell>\\n    </Edge>\\n    <Edge label=\\\"\\\" description=\\\"\\\" order=\\\"99999\\\" id=\\\"12\\\">\\n      <mxCell style=\\\"straight;noEdgeStyle=1\\\" parent=\\\"1\\\" source=\\\"10\\\" target=\\\"4\\\" edge=\\\"1\\\">\\n        <mxGeometry relative=\\\"1\\\" as=\\\"geometry\\\"/>\\n      </mxCell>\\n    </Edge>\\n  </root>\\n</mxGraphModel>\\n\",\n        \"umodelException\": \"\",\n        \"umodelFinal\": null,\n        \"uisDeleted\": false,\n        \"uisHidden\": false,\n        \"uisLocked\": false,\n        \"uisActive\": true,\n        \"uisDefaultRole\": true,\n        \"udecisionTree\": \"\",\n        \"ulanguage\": null,\n        \"utag\": null,\n        \"ucatalog\": null,\n        \"ulockedBy\": \"\",\n        \"uhasActiveModel\": true,\n        \"uisRoot\": false,\n        \"uratingBoost\": null,\n        \"uisRequestSubmission\": false,\n        \"ureqestSubmissionOn\": null,\n        \"ulastReviewedOn\": null,\n        \"ulastReviewedBy\": \"\",\n        \"uexpireOn\": null,\n        \"udtabortTime\": 0,\n        \"udisplayMode\": \"wiki\",\n        \"ucatalogId\": \"\",\n        \"uwikiParameters\": \"[]\",\n        \"uresolutionBuilderId\": \"8ab2826b672f3e20016731d9523e18e4\",\n        \"uhasResolutionBuilder\": false,\n        \"uisTemplate\": false,\n        \"usirrefCount\": 0,\n        \"udtoptions\": \"{\\\"dtLayout\\\":{\\\"questionFontColor\\\":\\\"000000\\\",\\\"questionFont\\\":\\\"Verdana\\\",\\\"questionFontSize\\\":\\\"13\\\",\\\"answerFontColor\\\":\\\"000000\\\",\\\"answerFont\\\":\\\"Verdana\\\",\\\"answerFontSize\\\":\\\"10\\\",\\\"recommendationFontColor\\\":\\\"41a510\\\",\\\"recommendationFont\\\":\\\"Verdana\\\",\\\"recommendationFontSize\\\":\\\"10\\\",\\\"confirmationFontColor\\\":\\\"FFFFFF\\\",\\\"confirmationBGColor\\\":\\\"41a510\\\",\\\"confirmationFont\\\":\\\"Verdana\\\",\\\"confirmationFontSize\\\":\\\"10\\\",\\\"navigationFontColor\\\":\\\"FFFFFF\\\",\\\"navigationBGColor\\\":\\\"41a510\\\",\\\"navigationFont\\\":\\\"Verdana\\\",\\\"navigationFontSize\\\":\\\"13\\\",\\\"autoConfirm\\\":false,\\\"buttonText\\\":\\\"Next\\\",\\\"questionOnTop\\\":true,\\\"navOnLeft\\\":true,\\\"verticalAnswerLayout\\\":false,\\\"isAutoAnswerDisabled\\\":false},\\\"dtVariables\\\":[]}\"\n    },\n    \"records\": null,\n    \"total\": 0\n}"
				}
			]
		},
		{
			"name": "Export Cef Type",
			"request": {
				"method": "POST",
				"header": [
					{
						"key": "Referer",
						"type": "text",
						"value": "{{protocol}}://{{hostname}}:{{port}}{{base_url}}/client/"
					},
					{
						"key": "OWASP_CSRFTOKEN",
						"type": "text",
						"value": "{{csrftoken}}"
					},
					{
						"key": "X-Requested-With",
						"type": "text",
						"value": "XMLHttpRequest, XMLHttpRequest"
					},
					{
						"key": "Content-Type",
						"name": "Content-Type",
						"type": "text",
						"value": "application/json"
					}
				],
				"body": {
					"mode": "raw",
					"raw": "{\n    \"id\": \"ff8080816ae5c795016ae6a8c77b0005\",\n    \"uname\": \"TestSchemaExp\",\n    \"udescription\": \"Take 1\",\n    \"uforwardWikiDocument\": \"\",\n    \"uscriptName\": \"\",\n    \"impexDefinition\": [\n        {\n            \"type\": \"rrSchema\",\n            \"name\": \"Test_Schema\",\n            \"namespace\": \"\",\n            \"options\" : {\"includeMapping\" : \"true\", \"includeUIAutomation\" : \"true\", \"includeGWAutomation\" : \"true\", \"includeSirPlaybook\" : \"true\"}\n        }\n    ]\n}"
				},
				"url": {
					"raw": "{{protocol}}://{{hostname}}:{{port}}{{base_url}}/impex/saveAndExport",
					"protocol": "{{protocol}}",
					"host": [
						"{{hostname}}"
					],
					"port": "{{port}}{{base_url}}",
					"path": [
						"impex",
						"saveAndExport"
					]
				}
			},
			"response": []
		},
		{
			"name": "get Artifact Action Details",
			"request": {
				"method": "GET",
				"header": [
					{
						"key": "Referer",
						"type": "text",
						"value": "{{protocol}}://{{hostname}}:{{port}}{{base_url}}/client/"
					},
					{
						"key": "OWASP_CSRFTOKEN",
						"type": "text",
						"value": "{{csrftoken}}"
					},
					{
						"key": "X-Requested-With",
						"type": "text",
						"value": "XMLHttpRequest, XMLHttpRequest"
					}
				],
				"body": {
					"mode": "raw",
					"raw": ""
				},
				"url": {
					"raw": "{{protocol}}://{{hostname}}:{{port}}{{base_url}}/impex/detail/artifactAction/ff8080816b010c2e016b010ed5dc0004",
					"protocol": "{{protocol}}",
					"host": [
						"{{hostname}}"
					],
					"port": "{{port}}{{base_url}}",
					"path": [
						"impex",
						"detail",
						"artifactAction",
						"ff8080816b010c2e016b010ed5dc0004"
					]
				}
			},
			"response": [
				{
					"name": "/wiki/get",
					"originalRequest": {
						"method": "GET",
						"header": [
							{
								"key": "Referer",
								"type": "text",
								"value": "{{protocol}}://{{hostname}}:{{port}}{{base_url}}/client/"
							},
							{
								"key": "OWASP_CSRFTOKEN",
								"type": "text",
								"value": "{{csrftoken}}"
							},
							{
								"key": "X-Requested-With",
								"type": "text",
								"value": "XMLHttpRequest, XMLHttpRequest"
							}
						],
						"body": {
							"mode": "raw",
							"raw": ""
						},
						"url": {
							"raw": "{{protocol}}://{{hostname}}:{{port}}{{base_url}}/wiki/get?id&name=PatchSmokeTest.QAAUI-227-1542729556058&version",
							"protocol": "{{protocol}}",
							"host": [
								"{{hostname}}"
							],
							"port": "{{port}}{{base_url}}",
							"path": [
								"wiki",
								"get"
							],
							"query": [
								{
									"key": "id",
									"value": null,
									"description": "ID of the wiki document to return"
								},
								{
									"key": "name",
									"value": "PatchSmokeTest.QAAUI-227-1542729556058",
									"description": "name of the wiki document to return"
								},
								{
									"key": "version",
									"value": null,
									"description": "version of the wiki document to get, could also be any of the special keywords \"latest\" or \"latestStable\" to denote latest or latest stable version to retrieve, if not specified defaults to \"latest\""
								}
							]
						}
					},
					"status": "OK",
					"code": 200,
					"_postman_previewlanguage": "json",
					"header": [
						{
							"key": "Cache-Control",
							"value": "no-cache, no-store, must-revalidate"
						},
						{
							"key": "Expires",
							"value": "Thu, 01 Jan 1970 00:00:00 GMT"
						},
						{
							"key": "Strict-Transport-Security",
							"value": "max-age=31536000;includeSubDomains"
						},
						{
							"key": "X-Frame-Options",
							"value": "SAMEORIGIN"
						},
						{
							"key": "X-Content-Type-Options",
							"value": "nosniff"
						},
						{
							"key": "X-XSS-Protection",
							"value": "1; mode=block "
						},
						{
							"key": "p3p",
							"value": "CP=\"JUSTFORIE\""
						},
						{
							"key": "Pragma",
							"value": "no-cache"
						},
						{
							"key": "Content-Security-Policy",
							"value": "upgrade-insecure-requests"
						},
						{
							"key": "Content-Type",
							"value": "application/json;charset=utf-8"
						},
						{
							"key": "Transfer-Encoding",
							"value": "chunked"
						},
						{
							"key": "Content-Encoding",
							"value": "gzip"
						},
						{
							"key": "Vary",
							"value": "Accept-Encoding"
						},
						{
							"key": "Date",
							"value": "Fri, 01 Mar 2019 08:07:37 GMT"
						},
						{
							"key": "Server",
							"value": "Apache"
						}
					],
					"cookie": [],
					"body": "{\n    \"success\": true,\n    \"message\": null,\n    \"errorCode\": null,\n    \"data\": {\n        \"id\": \"8ab2826b672f3e20016731d9523818e2\",\n        \"sys_id\": \"8ab2826b672f3e20016731d9523818e2\",\n        \"sysCreatedOn\": 1542729585000,\n        \"sysCreatedBy\": \"admin\",\n        \"sysUpdatedOn\": 1551427658154,\n        \"sysUpdatedBy\": \"admin\",\n        \"sysModCount\": 0,\n        \"sysPerm\": \"UNDEFINED\",\n        \"sysOrg\": \"\",\n        \"sysIsDeleted\": false,\n        \"sysOrganizationName\": \"UNDEFINED\",\n        \"checksum\": 735390983,\n        \"rbGeneralVO\": null,\n        \"accessRights\": {\n            \"id\": \"8ab2826b672f3e20016731d9523818e3\",\n            \"sys_id\": \"8ab2826b672f3e20016731d9523818e3\",\n            \"sysCreatedOn\": 1542729585000,\n            \"sysCreatedBy\": \"admin\",\n            \"sysUpdatedOn\": 1542729600000,\n            \"sysUpdatedBy\": \"admin\",\n            \"sysModCount\": 0,\n            \"sysPerm\": \"UNDEFINED\",\n            \"sysOrg\": null,\n            \"sysIsDeleted\": false,\n            \"sysOrganizationName\": \"UNDEFINED\",\n            \"checksum\": 0,\n            \"ureadAccess\": \"admin,resolve_dev,resolve_process,resolve_user,security_admin,security_designer\",\n            \"uwriteAccess\": \"admin,resolve_dev,resolve_process,resolve_user,security_admin,security_designer\",\n            \"uexecuteAccess\": \"admin,resolve_dev,resolve_process,resolve_user,security_admin,security_designer\",\n            \"uadminAccess\": \"admin,resolve_dev,resolve_process,resolve_user,security_admin,security_designer\",\n            \"uresourceType\": \"wikidoc\",\n            \"uresourceName\": \"PatchSmokeTest.QAAUI-227-1542729556058\",\n            \"uresourceId\": \"8ab2826b672f3e20016731d9523818e2\"\n        },\n        \"rbGeneral\": {\n            \"id\": \"8ab2826b672f3e20016731d9523e18e4\",\n            \"sys_id\": \"8ab2826b672f3e20016731d9523e18e4\",\n            \"sysCreatedOn\": 1542729585000,\n            \"sysCreatedBy\": \"admin\",\n            \"sysUpdatedOn\": 1542729585000,\n            \"sysUpdatedBy\": \"admin\",\n            \"sysModCount\": 0,\n            \"sysPerm\": \"UNDEFINED\",\n            \"sysOrg\": null,\n            \"sysIsDeleted\": false,\n            \"sysOrganizationName\": \"UNDEFINED\",\n            \"checksum\": 0,\n            \"name\": \"QAAUI-227-1542729556058\",\n            \"namespace\": \"PatchSmokeTest\",\n            \"summary\": null,\n            \"noOfColumn\": 0,\n            \"newWorksheet\": null,\n            \"wikiId\": \"8ab2826b672f3e20016731d9523818e2\",\n            \"generated\": false,\n            \"wikiParameters\": \"UNDEFINED\",\n            \"lockedByUser\": \"UNDEFINED\"\n        },\n        \"wikidocAttachmentRels\": null,\n        \"wikidocResolveTagRels\": null,\n        \"wikidocStatistics\": null,\n        \"roleWikidocHomepageRels\": null,\n        \"wikidocResolutionRating\": null,\n        \"wikidocQualityRating\": null,\n        \"pbActivities\": null,\n        \"namespace\": null,\n        \"softLock\": false,\n        \"lockedByUsername\": null,\n        \"hasChildren\": false,\n        \"uversion\": 3,\n        \"uname\": \"QAAUI-227-1542729556058\",\n        \"utitle\": \"PatchSmokeTest.QAAUI-227-1542729556058\",\n        \"ufullname\": \"PatchSmokeTest.QAAUI-227-1542729556058\",\n        \"unamespace\": \"PatchSmokeTest\",\n        \"uisStable\": null,\n        \"ureadRoles\": \"admin,resolve_dev,resolve_process,resolve_user,security_admin,security_designer\",\n        \"uwriteRoles\": \"admin,resolve_dev,resolve_process,resolve_user,security_admin,security_designer\",\n        \"uadminRoles\": \"admin,resolve_dev,resolve_process,resolve_user,security_admin,security_designer\",\n        \"uexecuteRoles\": \"admin,resolve_dev,resolve_process,resolve_user,security_admin,security_designer\",\n        \"uimpexSysId\": null,\n        \"uisDocumentStreamLocked\": false,\n        \"uisCurrentUserFollowing\": true,\n        \"usummary\": \"PatchSmokeTest.QAAUI-227-1542729556058\",\n        \"uwysiwyg\": null,\n        \"ucontent\": \"{section:type=new|title=Untitled Section}\\n\\n{section}\",\n        \"umodelProcess\": \"<mxGraphModel>\\n  <root>\\n    <mxCell id=\\\"0\\\"/>\\n    <mxCell id=\\\"1\\\" parent=\\\"0\\\"/>\\n    <Start label=\\\"Start\\\" description=\\\"\\\" merge=\\\"merge = ALL\\\" id=\\\"2\\\">\\n      <name>\\n        start#resolve\\n      </name>\\n      <params>\\n        <inputs/>\\n        <outputs/>\\n      </params>\\n      <mxCell style=\\\"symbol;image=/resolve/jsp/model/images/symbols/start.png;fontFamily=Helvetica;fontSize=11\\\" parent=\\\"1\\\" vertex=\\\"1\\\">\\n        <mxGeometry x=\\\"285\\\" y=\\\"5\\\" width=\\\"30\\\" height=\\\"30\\\" as=\\\"geometry\\\"/>\\n      </mxCell>\\n    </Start>\\n    <Task label=\\\"comment\\\" description=\\\"comment#resolve?\\\" tooltip=\\\"\\\" href=\\\"\\\" merge=\\\"merge = ALL\\\" id=\\\"3\\\">\\n      <name>\\n        comment#resolve\\n      </name>\\n      <params>\\n        <inputs>\\n          <![CDATA[{}]]>\\n        </inputs>\\n        <outputs>\\n          <![CDATA[{}]]>\\n        </outputs>\\n      </params>\\n      <mxCell style=\\\"rounded;labelBackgroundColor=none;strokeColor=#A9A9A9;fillColor=#D3D3D3;gradientColor=white;fontFamily=Helvetica;fontSize=11;verticalLabelPosition=middle;verticalAlign=middle\\\" parent=\\\"1\\\" vertex=\\\"1\\\">\\n        <mxGeometry x=\\\"150\\\" y=\\\"100\\\" width=\\\"100\\\" height=\\\"40\\\" as=\\\"geometry\\\"/>\\n      </mxCell>\\n    </Task>\\n    <End label=\\\"End\\\" description=\\\"\\\" merge=\\\"merge = ALL\\\" id=\\\"4\\\">\\n      <name>\\n        end#resolve\\n      </name>\\n      <params>\\n        <inputs/>\\n        <outputs/>\\n      </params>\\n      <mxCell style=\\\"symbol;image=/resolve/jsp/model/images/symbols/end.png;fontFamily=Helvetica;fontSize=11\\\" parent=\\\"1\\\" vertex=\\\"1\\\">\\n        <mxGeometry x=\\\"285\\\" y=\\\"205\\\" width=\\\"30\\\" height=\\\"30\\\" as=\\\"geometry\\\"/>\\n      </mxCell>\\n    </End>\\n    <Task label=\\\"noop\\\" description=\\\"noop#resolve?\\\" tooltip=\\\"\\\" href=\\\"\\\" merge=\\\"merge = ALL\\\" id=\\\"7\\\">\\n      <name>\\n        noop#resolve\\n      </name>\\n      <params>\\n        <inputs>\\n          <![CDATA[{}]]>\\n        </inputs>\\n        <outputs>\\n          <![CDATA[{}]]>\\n        </outputs>\\n      </params>\\n      <mxCell style=\\\"rounded;labelBackgroundColor=none;strokeColor=#A9A9A9;fillColor=#D3D3D3;gradientColor=white;fontFamily=Helvetica;fontSize=11;verticalLabelPosition=middle;verticalAlign=middle\\\" parent=\\\"1\\\" vertex=\\\"1\\\">\\n        <mxGeometry x=\\\"350\\\" y=\\\"100\\\" width=\\\"100\\\" height=\\\"40\\\" as=\\\"geometry\\\"/>\\n      </mxCell>\\n    </Task>\\n    <Task label=\\\"event\\\" description=\\\"event#resolve?\\\" tooltip=\\\"\\\" href=\\\"\\\" merge=\\\"merge = ALL\\\" id=\\\"10\\\">\\n      <name>\\n        event#resolve\\n      </name>\\n      <params>\\n        <inputs>\\n          <![CDATA[{}]]>\\n        </inputs>\\n        <outputs>\\n          <![CDATA[{}]]>\\n        </outputs>\\n      </params>\\n      <mxCell style=\\\"rounded;labelBackgroundColor=none;strokeColor=#A9A9A9;fillColor=#D3D3D3;gradientColor=white;fontFamily=Helvetica;fontSize=11\\\" parent=\\\"1\\\" vertex=\\\"1\\\">\\n        <mxGeometry x=\\\"250\\\" y=\\\"100\\\" width=\\\"100\\\" height=\\\"40\\\" as=\\\"geometry\\\"/>\\n      </mxCell>\\n    </Task>\\n    <Edge label=\\\"\\\" description=\\\"\\\" order=\\\"99999\\\" id=\\\"5\\\">\\n      <mxCell style=\\\"straight;noEdgeStyle=1\\\" parent=\\\"1\\\" source=\\\"2\\\" target=\\\"3\\\" edge=\\\"1\\\">\\n        <mxGeometry relative=\\\"1\\\" as=\\\"geometry\\\"/>\\n      </mxCell>\\n    </Edge>\\n    <Edge label=\\\"\\\" description=\\\"\\\" order=\\\"99999\\\" id=\\\"6\\\">\\n      <mxCell style=\\\"straight;noEdgeStyle=1\\\" parent=\\\"1\\\" source=\\\"3\\\" target=\\\"4\\\" edge=\\\"1\\\">\\n        <mxGeometry relative=\\\"1\\\" as=\\\"geometry\\\"/>\\n      </mxCell>\\n    </Edge>\\n    <Edge label=\\\"\\\" description=\\\"\\\" order=\\\"99999\\\" id=\\\"8\\\">\\n      <mxCell style=\\\"straight;noEdgeStyle=1\\\" parent=\\\"1\\\" source=\\\"2\\\" target=\\\"7\\\" edge=\\\"1\\\">\\n        <mxGeometry relative=\\\"1\\\" as=\\\"geometry\\\"/>\\n      </mxCell>\\n    </Edge>\\n    <Edge label=\\\"\\\" description=\\\"\\\" order=\\\"99999\\\" id=\\\"9\\\">\\n      <mxCell style=\\\"straight;noEdgeStyle=1\\\" parent=\\\"1\\\" source=\\\"7\\\" target=\\\"4\\\" edge=\\\"1\\\">\\n        <mxGeometry relative=\\\"1\\\" as=\\\"geometry\\\"/>\\n      </mxCell>\\n    </Edge>\\n    <Edge label=\\\"\\\" description=\\\"\\\" order=\\\"99999\\\" id=\\\"11\\\">\\n      <mxCell style=\\\"straight;noEdgeStyle=1\\\" parent=\\\"1\\\" source=\\\"2\\\" target=\\\"10\\\" edge=\\\"1\\\">\\n        <mxGeometry relative=\\\"1\\\" as=\\\"geometry\\\"/>\\n      </mxCell>\\n    </Edge>\\n    <Edge label=\\\"\\\" description=\\\"\\\" order=\\\"99999\\\" id=\\\"12\\\">\\n      <mxCell style=\\\"straight;noEdgeStyle=1\\\" parent=\\\"1\\\" source=\\\"10\\\" target=\\\"4\\\" edge=\\\"1\\\">\\n        <mxGeometry relative=\\\"1\\\" as=\\\"geometry\\\"/>\\n      </mxCell>\\n    </Edge>\\n  </root>\\n</mxGraphModel>\\n\",\n        \"umodelException\": \"\",\n        \"umodelFinal\": null,\n        \"uisDeleted\": false,\n        \"uisHidden\": false,\n        \"uisLocked\": false,\n        \"uisActive\": true,\n        \"uisDefaultRole\": true,\n        \"udecisionTree\": \"\",\n        \"ulanguage\": null,\n        \"utag\": null,\n        \"ucatalog\": null,\n        \"ulockedBy\": \"\",\n        \"uhasActiveModel\": true,\n        \"uisRoot\": false,\n        \"uratingBoost\": null,\n        \"uisRequestSubmission\": false,\n        \"ureqestSubmissionOn\": null,\n        \"ulastReviewedOn\": null,\n        \"ulastReviewedBy\": \"\",\n        \"uexpireOn\": null,\n        \"udtabortTime\": 0,\n        \"udisplayMode\": \"wiki\",\n        \"ucatalogId\": \"\",\n        \"uwikiParameters\": \"[]\",\n        \"uresolutionBuilderId\": \"8ab2826b672f3e20016731d9523e18e4\",\n        \"uhasResolutionBuilder\": false,\n        \"uisTemplate\": false,\n        \"usirrefCount\": 0,\n        \"udtoptions\": \"{\\\"dtLayout\\\":{\\\"questionFontColor\\\":\\\"000000\\\",\\\"questionFont\\\":\\\"Verdana\\\",\\\"questionFontSize\\\":\\\"13\\\",\\\"answerFontColor\\\":\\\"000000\\\",\\\"answerFont\\\":\\\"Verdana\\\",\\\"answerFontSize\\\":\\\"10\\\",\\\"recommendationFontColor\\\":\\\"41a510\\\",\\\"recommendationFont\\\":\\\"Verdana\\\",\\\"recommendationFontSize\\\":\\\"10\\\",\\\"confirmationFontColor\\\":\\\"FFFFFF\\\",\\\"confirmationBGColor\\\":\\\"41a510\\\",\\\"confirmationFont\\\":\\\"Verdana\\\",\\\"confirmationFontSize\\\":\\\"10\\\",\\\"navigationFontColor\\\":\\\"FFFFFF\\\",\\\"navigationBGColor\\\":\\\"41a510\\\",\\\"navigationFont\\\":\\\"Verdana\\\",\\\"navigationFontSize\\\":\\\"13\\\",\\\"autoConfirm\\\":false,\\\"buttonText\\\":\\\"Next\\\",\\\"questionOnTop\\\":true,\\\"navOnLeft\\\":true,\\\"verticalAnswerLayout\\\":false,\\\"isAutoAnswerDisabled\\\":false},\\\"dtVariables\\\":[]}\"\n    },\n    \"records\": null,\n    \"total\": 0\n}"
				}
			]
		}
	]
}