{
    "metricactiontask" :
    {
        "_all" :
        {
            "enabled" : false
        },
        "_meta" :
        {
            "version" : "1"
        },
        "properties":
        {
            "id":
            {
                "type":"string",
                "index" : "not_analyzed",
                "doc_values": true
            },
            "src":
            {
                "type":"string",
                "index" : "not_analyzed",
                "doc_values": true
            },
            "ts":
            {
                "type":"date",
                "index" : "not_analyzed",
                "doc_values": true
            },
            "group":
            {
                "type":"string",
                "index" : "not_analyzed",
                "doc_values": true
            },
            "name":
            {
                "type":"string",
                "index" : "not_analyzed",
                "doc_values": true
            },
            "value":
            {
                "type":"long",
                "index" : "not_analyzed",
                "doc_values": true
            },
            "count":
            {
                "type":"long",
                "index" : "not_analyzed",
                "doc_values": true
            }
        }
    }
}