{
    "synclog" :
    {
        "_all" :
        {
            "enabled" : false
        },
        "properties":
        {
            "sysId":
            {
                "type":"string",
                "index" : "not_analyzed"
            },
            "timestamp":
            {
                "type":"date",
                "index" : "not_analyzed"
            },
            "indexName":
            {
                "type":"string",
                "index" : "not_analyzed"
            },
            "transactionType":
            {
                "type":"string",
                "index" : "not_analyzed"
            },
            "query":
            {
                "type":"string",
                "index" : "not_analyzed"
            },
            "processed":
            {
                "type":"boolean",
                "index" : "not_analyzed"
            }
        }
    }
}