{
    "worksheet" :
    {
        "_all" :
        {
            "enabled" : false
        },
        "properties":
        {
            "sysId":
            {
                "type":"string",
                "index" : "not_analyzed"
            },
            "sysCreatedBy":
            {
                "type":"string",
                "index" : "not_analyzed"
            },
            "sysCreatedOn":
            {
                "type":"long",
                "null_value":0
            },
            "sysCreatedDt":
            {
                "type":"date",
                "index" : "not_analyzed"
            },
            "sysUpdatedBy":
            {
                "type":"string",
                "index" : "not_analyzed"
            },
            "sysUpdatedOn":
            {
                "type":"long",
                "null_value":0
            },
            "sysUpdatedDt":
            {
                "type":"date",
                "index" : "not_analyzed"
            },
            "number":
            {
                "type":"keyword",
                "normalizer": "resolve_normalizer"
            },
            "condition":
            {
                "type":"keyword",
                "normalizer": "resolve_normalizer"
            },
            "severity":
            {
                "type":"keyword",
                "normalizer": "resolve_normalizer"
            },
            "alertId":
            {
                "type":"keyword",
                "normalizer": "resolve_normalizer"
            },
            "reference":
            {
                "type":"keyword",
                "normalizer": "resolve_normalizer"
            },
            "correlationId":
            {
                "type":"keyword",
                "normalizer": "resolve_normalizer"
            },
            "sirId":
            {
                "type":"keyword",
                "normalizer": "resolve_normalizer"
            },
            "summary":
            {
                "type":"keyword",
                "normalizer": "resolve_normalizer"
            },
            "description":
            {
                "type":"string",
                "analyzer" : "standard"
            },
            "assignedTo":
            {
                "type":"string",
                "index" : "not_analyzed"
            },
            "assignedToName":
            {
                "type":"keyword",
                "normalizer": "resolve_normalizer"
            },
            "sysOrg":
            {
                "type":"string",
                "index" : "not_analyzed"
            }
        }
    }
}