{
  "relationships" : [ {
    "sourceType" : "PROCESS",
    "sourceName" : "Content Request Process",
    "targetType" : "TEAM",
    "targetName" : "Content Request Admin Team",
    "targetObject" : null,
    "relationType" : null,
    "relProperty" : null,
    "mode" : "IGNORE"
  }, {
    "sourceType" : "PROCESS",
    "sourceName" : "Content Request Process",
    "targetType" : "TEAM",
    "targetName" : "Content Request Managers",
    "targetObject" : null,
    "relationType" : null,
    "relProperty" : null,
    "mode" : "IGNORE"
  }, {
    "sourceType" : "PROCESS",
    "sourceName" : "Content Request Process",
    "targetType" : "TEAM",
    "targetName" : "Dev Group",
    "targetObject" : null,
    "relationType" : null,
    "relProperty" : null,
    "mode" : "IGNORE"
  }, {
    "sourceType" : "PROCESS",
    "sourceName" : "Content Request Process",
    "targetType" : "TEAM",
    "targetName" : "Process Group",
    "targetObject" : null,
    "relationType" : null,
    "relProperty" : null,
    "mode" : "IGNORE"
  }, {
    "sourceType" : "PROCESS",
    "sourceName" : "Content Request Process",
    "targetType" : "USER",
    "targetName" : "admin",
    "targetObject" : null,
    "relationType" : null,
    "relProperty" : null,
    "mode" : "IGNORE"
  },  {
    "sourceType" : "TEAM",
    "sourceName" : "Content Request Dev Team",
    "targetType" : "USER",
    "targetName" : "admin",
    "targetObject" : null,
    "relationType" : null,
    "relProperty" : null,
    "mode" : "IGNORE"
  } ]
}